<svg width="240" height="169" viewBox="0 0 240 169" fill="none" xmlns="http://www.w3.org/2000/svg">
<g clip-path="url(#clip0)">
<g opacity="0.2">
<path opacity="0.2" d="M83.0796 155.345C83.2001 155.864 83.3604 156.372 83.5587 156.865C86.6419 155.592 89.7591 154.372 92.9103 153.205C92.8837 153.067 92.8571 152.923 92.8238 152.781C92.5064 151.314 91.8288 149.961 90.8586 148.855C89.5987 147.457 87.975 146.781 86.3957 147.193C84.8164 147.606 83.6697 149.018 83.1462 150.876C82.7548 152.334 82.7319 153.875 83.0796 155.345Z" fill="#3F3D56"/>
<path opacity="0.2" d="M87.5095 152.564C90.2163 151.929 91.7549 148.329 90.946 144.523C90.1372 140.717 87.2873 138.147 84.5805 138.782C81.8737 139.418 80.3351 143.018 81.1439 146.824C81.9527 150.629 84.8027 153.199 87.5095 152.564Z" fill="#3F3D56"/>
<path opacity="0.2" d="M85.6101 144.169C88.3169 143.533 89.8555 139.933 89.0467 136.127C88.2378 132.322 85.3879 129.751 82.6811 130.387C79.9743 131.022 78.4357 134.622 79.2445 138.428C80.0533 142.234 82.9033 144.804 85.6101 144.169Z" fill="#3F3D56"/>
<path opacity="0.2" d="M83.7068 135.778C86.4135 135.143 87.9521 131.543 87.1433 127.737C86.3345 123.931 83.4846 121.361 80.7778 121.996C78.071 122.632 76.5324 126.232 77.3412 130.038C78.15 133.843 81 136.414 83.7068 135.778Z" fill="#3F3D56"/>
<path opacity="0.2" d="M81.8034 127.386C84.5102 126.75 86.0488 123.15 85.24 119.344C84.4312 115.539 81.5812 112.968 78.8744 113.604C76.1677 114.239 74.6291 117.839 75.4379 121.645C76.2467 125.451 79.0966 128.021 81.8034 127.386Z" fill="#3F3D56"/>
<path opacity="0.2" d="M85.5616 58.2619C86.0231 57.1739 86.4129 56.0539 86.7283 54.9098L73.4196 56.0101L87.2917 52.4832C87.9546 48.8171 87.8706 45.045 87.0455 41.4155C86.3221 38.2023 85.0252 35.1625 83.2237 32.4573L66.9871 47.7139L81.0433 29.6554C75.305 23.2171 66.6256 20.1541 57.9993 22.4292C45.1099 25.8162 37.2111 39.8117 40.3564 53.6884C41.6067 59.2934 44.604 64.2984 48.8718 67.9077C48.1548 69.6019 47.6098 71.3708 47.2459 73.1852L65.9712 78.113L46.8023 76.367C46.573 79.1797 46.7737 82.0128 47.3967 84.7588C48.6492 90.3634 51.6469 95.3679 55.9143 98.9781C53.6717 104.27 53.1539 110.192 54.4415 115.824C57.5867 129.701 70.5849 138.202 83.4744 134.818C96.3638 131.433 104.263 117.438 101.117 103.561C99.8648 97.9562 96.867 92.9517 92.5997 89.3416C94.8423 84.0497 95.36 78.1279 94.0725 72.4952C92.8257 66.8859 89.8299 61.8758 85.5616 58.2619Z" fill="#185296"/>
<path opacity="0.1" d="M47.4011 84.7494C48.6535 90.354 51.6513 95.3585 55.9187 98.9687C53.676 104.261 53.1583 110.182 54.4458 115.815C57.5911 129.692 70.5893 138.193 83.4787 134.808C96.3682 131.424 104.267 117.428 101.122 103.551C99.8692 97.9468 96.8714 92.9423 92.604 89.3322C94.7645 84.2365 46.7623 81.9358 47.4011 84.7494Z" fill="black"/>
</g>
<g opacity="0.2">
<path opacity="0.2" d="M142.9 152.783C142.819 153.39 142.787 154.003 142.804 154.615C146.671 154.681 150.553 154.817 154.449 155.026C154.476 154.865 154.503 154.702 154.525 154.536C154.776 152.827 154.588 151.078 153.981 149.471C153.179 147.415 151.681 145.944 149.807 145.659C147.933 145.375 146.105 146.345 144.785 148.074C143.769 149.439 143.118 151.065 142.9 152.783Z" fill="#3F3D56"/>
<path opacity="0.2" d="M155.871 144.77C156.475 140.353 154.362 136.38 151.151 135.895C147.94 135.41 144.847 138.597 144.243 143.014C143.639 147.43 145.752 151.404 148.963 151.889C152.174 152.374 155.267 149.187 155.871 144.77Z" fill="#3F3D56"/>
<path opacity="0.2" d="M157.207 134.995C157.811 130.578 155.698 126.605 152.487 126.119C149.276 125.634 146.184 128.822 145.579 133.238C144.975 137.655 147.089 141.629 150.299 142.114C153.51 142.599 156.603 139.412 157.207 134.995Z" fill="#3F3D56"/>
<path opacity="0.2" d="M158.543 125.222C159.147 120.805 157.034 116.832 153.823 116.347C150.612 115.862 147.52 119.049 146.915 123.466C146.311 127.882 148.424 131.856 151.635 132.341C154.846 132.826 157.939 129.639 158.543 125.222Z" fill="#3F3D56"/>
<path opacity="0.2" d="M159.882 115.447C160.486 111.031 158.373 107.057 155.162 106.572C151.951 106.087 148.858 109.274 148.254 113.691C147.65 118.108 149.763 122.081 152.974 122.566C156.185 123.051 159.278 119.864 159.882 115.447Z" fill="#3F3D56"/>
<path opacity="0.2" d="M184.969 50.9611C185.909 50.0167 186.785 49.0041 187.59 47.9307L172.678 43.0076L189.179 45.63C191.258 42.2457 192.659 38.4511 193.296 34.4784C193.932 30.5056 193.791 26.4382 192.881 22.5248L169.067 31.2522L191.665 18.548C190.226 14.7813 188.064 11.3664 185.314 8.51606C182.564 5.66573 179.285 3.44103 175.681 1.98057C172.077 0.520103 168.226 -0.144838 164.367 0.0271681C160.508 0.199175 156.724 1.20444 153.251 2.98035C149.778 4.75625 146.69 7.26474 144.179 10.3495C141.669 13.4344 139.79 17.0294 138.659 20.9107C137.528 24.792 137.17 28.8763 137.607 32.9094C138.044 36.9424 139.267 40.8377 141.199 44.3526C139.738 45.8196 138.431 47.4475 137.301 49.2081L155.647 63.0265L135.527 52.3783C133.41 56.7651 132.368 61.6373 132.494 66.5541C132.62 71.4708 133.911 76.2768 136.25 80.5372C132.429 84.3655 129.71 89.2464 128.405 94.6218C127.099 99.9973 127.259 105.65 128.867 110.935C130.474 116.219 133.464 120.922 137.495 124.504C141.525 128.087 146.434 130.406 151.659 131.195C156.885 131.984 162.216 131.212 167.043 128.967C171.871 126.722 176 123.095 178.959 118.5C181.917 113.906 183.586 108.529 183.773 102.984C183.961 97.4401 182.66 91.9521 180.02 87.148C184.586 82.5728 187.557 76.5175 188.454 69.9547C189.352 63.3918 188.124 56.7025 184.969 50.9611Z" fill="#185296"/>
<path opacity="0.1" d="M132.765 61.5441C131.858 68.1069 133.086 74.7993 136.25 80.5373C132.429 84.3656 129.71 89.2465 128.405 94.6219C127.099 99.9974 127.259 105.651 128.867 110.935C130.474 116.219 133.464 120.922 137.495 124.504C141.525 128.087 146.434 130.406 151.659 131.195C156.885 131.984 162.216 131.212 167.043 128.967C171.871 126.723 176 123.095 178.959 118.501C181.917 113.906 183.586 108.529 183.773 102.985C183.961 97.4402 182.66 91.9522 180.02 87.1481C184.434 82.7308 133.216 58.2596 132.765 61.5441Z" fill="black"/>
</g>
<path opacity="0.1" d="M120 169C186.274 169 240 165.765 240 161.774C240 157.783 186.274 154.548 120 154.548C53.7258 154.548 0 157.783 0 161.774C0 165.765 53.7258 169 120 169Z" fill="#185296"/>
<path d="M198.455 158.862C201.554 158.862 204.066 158.354 204.066 157.727C204.066 157.1 201.554 156.592 198.455 156.592C195.355 156.592 192.843 157.1 192.843 157.727C192.843 158.354 195.355 158.862 198.455 158.862Z" fill="#185296"/>
<path d="M198.362 158.147C198.723 158.147 199.016 157.744 199.016 157.247C199.016 156.75 198.723 156.347 198.362 156.347C198 156.347 197.707 156.75 197.707 157.247C197.707 157.744 198 158.147 198.362 158.147Z" fill="#3F3D56"/>
<path d="M198.362 157.046C198.723 157.046 199.016 156.644 199.016 156.147C199.016 155.65 198.723 155.247 198.362 155.247C198 155.247 197.707 155.65 197.707 156.147C197.707 156.644 198 157.046 198.362 157.046Z" fill="#3F3D56"/>
<path d="M198.362 155.948C198.723 155.948 199.016 155.546 199.016 155.049C199.016 154.552 198.723 154.149 198.362 154.149C198 154.149 197.707 154.552 197.707 155.049C197.707 155.546 198 155.948 198.362 155.948Z" fill="#3F3D56"/>
<path d="M198.362 154.851C198.723 154.851 199.016 154.448 199.016 153.951C199.016 153.454 198.723 153.051 198.362 153.051C198 153.051 197.707 153.454 197.707 153.951C197.707 154.448 198 154.851 198.362 154.851Z" fill="#3F3D56"/>
<path d="M198.362 153.75C198.723 153.75 199.016 153.348 199.016 152.851C199.016 152.354 198.723 151.951 198.362 151.951C198 151.951 197.707 152.354 197.707 152.851C197.707 153.348 198 153.75 198.362 153.75Z" fill="#3F3D56"/>
<path d="M198.362 152.652C198.723 152.652 199.016 152.25 199.016 151.753C199.016 151.256 198.723 150.853 198.362 150.853C198 150.853 197.707 151.256 197.707 151.753C197.707 152.25 198 152.652 198.362 152.652Z" fill="#3F3D56"/>
<path d="M198.362 151.555C198.723 151.555 199.016 151.152 199.016 150.655C199.016 150.158 198.723 149.755 198.362 149.755C198 149.755 197.707 150.158 197.707 150.655C197.707 151.152 198 151.555 198.362 151.555Z" fill="#3F3D56"/>
<path d="M200.806 143.137C200.896 143.018 200.977 142.891 201.05 142.76L199.333 142.464L201.19 142.478C201.367 142.07 201.464 141.629 201.475 141.181C201.485 140.733 201.408 140.287 201.249 139.871L198.759 141.23L201.056 139.454C200.842 139.061 200.553 138.719 200.207 138.449C199.861 138.178 199.465 137.986 199.045 137.884C198.625 137.782 198.189 137.772 197.766 137.855C197.342 137.938 196.939 138.112 196.582 138.366C196.225 138.621 195.922 138.95 195.692 139.333C195.461 139.716 195.309 140.144 195.243 140.592C195.178 141.04 195.201 141.497 195.312 141.935C195.423 142.373 195.618 142.782 195.886 143.137C195.747 143.323 195.628 143.524 195.529 143.736L197.747 144.953L195.371 144.114C195.205 144.633 195.165 145.188 195.255 145.728C195.345 146.268 195.562 146.776 195.886 147.205C195.523 147.69 195.297 148.273 195.234 148.886C195.171 149.5 195.274 150.12 195.531 150.675C195.787 151.231 196.187 151.699 196.685 152.026C197.183 152.354 197.759 152.527 198.346 152.527C198.933 152.527 199.509 152.354 200.007 152.026C200.505 151.699 200.905 151.231 201.161 150.675C201.418 150.12 201.521 149.5 201.458 148.886C201.395 148.273 201.169 147.69 200.806 147.205C201.24 146.625 201.476 145.91 201.476 145.172C201.476 144.435 201.24 143.719 200.806 143.14V143.137Z" fill="#185296"/>
<path opacity="0.1" d="M195.216 145.17C195.214 145.907 195.448 146.623 195.882 147.202C195.518 147.688 195.292 148.27 195.23 148.884C195.167 149.498 195.27 150.118 195.526 150.673C195.783 151.228 196.183 151.696 196.681 152.024C197.179 152.351 197.754 152.525 198.341 152.525C198.929 152.525 199.504 152.351 200.002 152.024C200.5 151.696 200.9 151.228 201.157 150.673C201.413 150.118 201.516 149.498 201.453 148.884C201.39 148.27 201.165 147.688 200.801 147.202C201.225 146.643 195.216 144.801 195.216 145.17Z" fill="black"/>
<path d="M69.5822 167.993C73.7228 167.993 77.0794 167.315 77.0794 166.478C77.0794 165.641 73.7228 164.963 69.5822 164.963C65.4416 164.963 62.085 165.641 62.085 166.478C62.085 167.315 65.4416 167.993 69.5822 167.993Z" fill="#185296"/>
<path d="M69.4557 167.035C69.9384 167.035 70.3297 166.498 70.3297 165.835C70.3297 165.171 69.9384 164.634 69.4557 164.634C68.9731 164.634 68.5818 165.171 68.5818 165.835C68.5818 166.498 68.9731 167.035 69.4557 167.035Z" fill="#3F3D56"/>
<path d="M69.4557 165.566C69.9384 165.566 70.3297 165.029 70.3297 164.366C70.3297 163.703 69.9384 163.165 69.4557 163.165C68.9731 163.165 68.5818 163.703 68.5818 164.366C68.5818 165.029 68.9731 165.566 69.4557 165.566Z" fill="#3F3D56"/>
<path d="M69.4557 164.098C69.9384 164.098 70.3297 163.56 70.3297 162.897C70.3297 162.234 69.9384 161.697 69.4557 161.697C68.9731 161.697 68.5818 162.234 68.5818 162.897C68.5818 163.56 68.9731 164.098 69.4557 164.098Z" fill="#3F3D56"/>
<path d="M69.4557 162.632C69.9384 162.632 70.3297 162.094 70.3297 161.431C70.3297 160.768 69.9384 160.231 69.4557 160.231C68.9731 160.231 68.5818 160.768 68.5818 161.431C68.5818 162.094 68.9731 162.632 69.4557 162.632Z" fill="#3F3D56"/>
<path d="M69.4557 161.163C69.9384 161.163 70.3297 160.626 70.3297 159.963C70.3297 159.3 69.9384 158.762 69.4557 158.762C68.9731 158.762 68.5818 159.3 68.5818 159.963C68.5818 160.626 68.9731 161.163 69.4557 161.163Z" fill="#3F3D56"/>
<path d="M69.4557 159.695C69.9384 159.695 70.3297 159.157 70.3297 158.494C70.3297 157.831 69.9384 157.294 69.4557 157.294C68.9731 157.294 68.5818 157.831 68.5818 158.494C68.5818 159.157 68.9731 159.695 69.4557 159.695Z" fill="#3F3D56"/>
<path d="M69.4557 158.228C69.9384 158.228 70.3297 157.691 70.3297 157.028C70.3297 156.365 69.9384 155.827 69.4557 155.827C68.9731 155.827 68.5818 156.365 68.5818 157.028C68.5818 157.691 68.9731 158.228 69.4557 158.228Z" fill="#3F3D56"/>
<path d="M72.7253 146.983C72.8436 146.823 72.9518 146.655 73.0492 146.48L70.7579 146.084L73.2377 146.105C73.4764 145.561 73.6065 144.971 73.6203 144.372C73.634 143.773 73.531 143.178 73.3176 142.622L69.9904 144.436L73.0581 142.077C72.7693 141.557 72.382 141.105 71.9203 140.749C71.4585 140.393 70.9321 140.141 70.3736 140.007C69.8152 139.874 69.2366 139.863 68.6738 139.974C68.111 140.085 67.576 140.317 67.1019 140.654C66.6278 140.992 66.2248 141.428 65.9177 141.936C65.6107 142.444 65.4063 143.013 65.3171 143.608C65.228 144.202 65.256 144.81 65.3994 145.392C65.5428 145.975 65.7985 146.521 66.1508 146.995C65.9655 147.244 65.8056 147.513 65.6739 147.797L68.6529 149.429L65.4765 148.31C65.253 149.001 65.1969 149.741 65.313 150.461C65.4292 151.181 65.7141 151.86 66.142 152.436C65.6571 153.084 65.3556 153.862 65.2719 154.682C65.1882 155.502 65.3256 156.33 65.6685 157.071C66.0114 157.813 66.5459 158.438 67.2109 158.876C67.876 159.313 68.6447 159.545 69.4292 159.545C70.2137 159.545 70.9825 159.313 71.6475 158.876C72.3125 158.438 72.847 157.813 73.1899 157.071C73.5328 156.33 73.6702 155.502 73.5865 154.682C73.5028 153.862 73.2013 153.084 72.7165 152.436C73.2955 151.661 73.6103 150.704 73.6103 149.719C73.6103 148.734 73.2955 147.777 72.7165 147.002L72.7253 146.983Z" fill="#185296"/>
<path opacity="0.1" d="M65.2569 149.699C65.2541 150.684 65.5666 151.641 66.1442 152.417C65.6593 153.065 65.3578 153.844 65.2741 154.664C65.1904 155.483 65.3278 156.311 65.6707 157.053C66.0136 157.794 66.5481 158.42 67.2131 158.857C67.8782 159.294 68.6469 159.526 69.4314 159.526C70.2159 159.526 70.9846 159.294 71.6497 158.857C72.3147 158.42 72.8492 157.794 73.1921 157.053C73.535 156.311 73.6724 155.483 73.5887 154.664C73.505 153.844 73.2035 153.065 72.7186 152.417C73.2843 151.669 65.2569 149.207 65.2569 149.699Z" fill="black"/>
<path d="M109.056 99.7519C108.49 96.6423 107.858 93.5257 107.754 90.3625C107.692 88.4977 107.816 86.6002 107.587 84.74C107.474 83.8263 107.277 82.9288 107.082 82.0314L106.296 78.4393C106.386 77.7507 106.36 77.051 106.221 76.3716C106.142 76.0133 106.038 75.6619 105.908 75.3203C106.641 74.2362 107.245 73.062 107.707 71.8238C107.916 71.2643 108.095 70.6699 108.013 70.0778C107.854 68.9426 106.807 68.1944 105.833 67.6349C105.243 67.2969 104.622 66.9706 103.948 66.917C103.476 66.897 103.006 66.9918 102.575 67.194C102.145 67.3961 101.764 67.7002 101.463 68.0825C101.299 67.1635 101.354 66.2162 101.623 65.3249C101.044 65.0521 100.461 64.7957 99.8728 64.5463C99.7879 63.7407 99.7582 62.9297 99.7841 62.1197C99.7974 61.1476 99.8129 60.1663 99.8662 59.1919C101.444 58.5869 102.807 57.4893 103.774 56.0463C104.74 54.6034 105.264 52.8842 105.274 51.1195C105.274 51.0193 105.274 50.9214 105.274 50.8235C105.704 50.0113 105.976 49.1175 106.074 48.1939C106.172 47.2702 106.095 46.3353 105.846 45.4435C105.196 43.1124 103.497 41.1917 101.45 40.0052C99.4026 38.8187 97.0292 38.3175 94.6802 38.2289C93.8919 38.1804 93.1009 38.2329 92.3246 38.3851C91.4937 38.6 90.6886 38.9128 89.9246 39.3175C88.7512 39.8863 87.5689 40.5087 86.6906 41.49C85.1667 43.1987 84.8251 45.7092 84.9915 48.0169C85.2133 51.0473 86.176 53.9797 87.2895 56.8003C87.6599 57.7327 88.0547 58.6791 88.6647 59.474C89.1372 60.087 89.9579 60.1243 90.61 59.6954C90.5582 60.44 90.5419 61.1869 90.5612 61.9332C89.3567 61.8889 88.1834 62.0964 87.2163 62.8097C86.7726 63.143 86.3512 63.6675 86.4488 64.2316C86.7451 64.2399 87.029 64.3578 87.2506 64.5647C87.4722 64.7715 87.6171 65.054 87.6599 65.3622C87.7087 65.8587 87.4713 66.3319 87.2407 66.7608C87.1409 66.9519 87.041 67.1454 86.939 67.3365C85.9852 68.4088 85.007 69.7515 84.9205 71.0825C84.7649 71.098 84.6101 71.1221 84.4569 71.1548C83.5919 71.3226 82.7312 71.6326 81.8817 71.8657L75.7331 73.5674L74.2137 74.0103L71.7738 74.6863C70.2211 75.1152 68.6396 75.5558 67.2621 76.4182C65.8847 77.2807 64.7157 78.6351 64.4385 80.2668C64.3009 81.078 64.3852 81.9218 64.2166 82.726C64.2166 82.7633 64.2033 82.7983 64.1945 82.8333C64.0536 83.3423 63.8641 83.8351 63.6288 84.3041C62.2514 87.3555 61.271 90.6818 61.4551 94.0409C61.5682 96.1038 62.1205 98.1155 62.6573 100.102C63.2207 102.133 63.7767 104.164 64.3253 106.195C64.6871 107.649 65.1459 109.074 65.6983 110.461C66.6447 112.681 68.0486 114.653 69.8085 116.235C70.3024 116.7 70.8547 117.092 71.4499 117.4C72.3575 117.813 73.3483 117.982 74.3335 117.892C74.5996 117.873 74.8614 117.843 75.1209 117.799C77.0263 117.482 78.803 116.517 80.4333 115.43C81.115 114.977 81.7804 114.499 82.4296 113.997C82.512 114.78 82.6605 115.554 82.8732 116.309C83.0174 116.829 83.1948 117.363 83.1372 117.901C83.0573 118.652 82.5383 119.267 82.2699 119.971C81.6998 121.458 82.2854 123.116 82.3808 124.71C82.4717 126.204 82.1257 127.687 81.8484 129.158C81.3854 131.611 81.1117 134.099 81.0299 136.599C81.0275 137.545 80.9682 138.49 80.8525 139.428C80.6462 140.752 80.1627 142.03 80.0784 143.368C79.9497 145.452 80.8059 147.491 80.7283 149.578C80.6373 152.028 79.2688 154.408 79.7457 156.804C79.8055 157.105 79.9675 157.452 80.2292 157.529L80.1006 157.652C79.7079 158.035 79.3264 158.741 79.7723 159.051C79.8749 159.115 79.9888 159.156 80.1072 159.172C80.797 159.324 81.4913 159.461 82.1856 159.59C82.1703 160.264 82.2511 160.936 82.4251 161.585C82.5516 161.68 82.6802 161.767 82.8089 161.848C82.7113 162.123 82.7179 162.389 82.9486 162.548C83.0512 162.612 83.1652 162.653 83.2836 162.669C88.9973 163.908 94.8326 164.417 100.662 164.184C101.705 164.142 102.794 164.063 103.684 163.503C104.573 162.944 105.174 161.753 104.75 160.771C104.376 159.904 103.395 159.529 102.515 159.24L101.481 158.904C101.613 158.658 101.691 158.382 101.707 158.1C101.723 157.817 101.678 157.534 101.574 157.272C101.199 156.405 100.219 156.03 99.3383 155.741L96.9582 154.965C96.645 154.887 96.3505 154.742 96.0932 154.538C95.9227 154.36 95.7655 154.168 95.6229 153.965C95.2795 153.552 94.8283 153.255 94.3253 153.109C94.2986 152.579 94.3097 152.048 94.3586 151.52L95.024 143.079C95.1726 141.167 95.319 139.219 94.8954 137.351C94.7246 136.594 94.4518 135.818 94.6181 135.058C94.8776 133.818 96.1198 133.128 96.9671 132.207C98.2447 130.808 98.6418 128.82 98.9346 126.927C100.147 119.116 100.528 111.188 100.07 103.288C102.733 102.499 105.473 102.036 108.237 101.908C108.708 101.887 108.938 101.654 109.085 101.192C109.231 100.731 109.142 100.23 109.056 99.7519ZM95.7804 100.164C95.7959 100.083 95.8137 100.001 95.827 99.9197L96.0111 100.167L95.7804 100.164Z" fill="url(#paint0_linear)"/>
<path d="M91.455 57.3784C91.3974 58.1896 91.1245 58.9682 91.0247 59.777C90.9116 60.6675 91.0114 61.5743 90.956 62.4717C90.9005 63.3692 90.6543 64.3132 90.0044 64.8983C93.7818 65.2421 97.5024 66.088 101.077 67.4158C99.997 66.0172 99.9682 64.0638 99.9948 62.2689C100.03 59.6139 100.075 56.9075 100.9 54.4017C98.4388 53.8236 95.8904 53.7886 93.4159 54.2991C92.8791 54.411 91.2532 54.3411 91.0114 54.8679C90.8362 55.2548 91.495 56.791 91.455 57.3784Z" fill="#A1616A"/>
<path opacity="0.1" d="M91.455 57.3784C91.3974 58.1896 91.1245 58.9682 91.0247 59.777C90.9116 60.6675 91.0114 61.5743 90.956 62.4717C90.9005 63.3692 90.6543 64.3132 90.0044 64.8983C93.7818 65.2421 97.5024 66.088 101.077 67.4158C99.997 66.0172 99.9682 64.0638 99.9948 62.2689C100.03 59.6139 100.075 56.9075 100.9 54.4017C98.4388 53.8236 95.8904 53.7886 93.4159 54.2991C92.8791 54.411 91.2532 54.3411 91.0114 54.8679C90.8362 55.2548 91.495 56.791 91.455 57.3784Z" fill="black"/>
<path d="M95.9267 153.977C96.06 154.183 96.2084 154.379 96.3704 154.562C96.6201 154.765 96.9082 154.91 97.2155 154.988L99.5401 155.764C100.403 156.053 101.361 156.426 101.727 157.294C102.14 158.273 101.552 159.464 100.682 160.021C99.8129 160.578 98.7482 160.66 97.7301 160.702C92.0296 160.932 86.3238 160.424 80.7415 159.189C80.6263 159.171 80.5155 159.13 80.4155 159.067C79.9719 158.753 80.3511 158.049 80.7349 157.669C82.2321 156.177 83.8602 154.613 85.8987 154.268C86.97 154.084 88.0458 154.158 89.1105 153.89C89.8757 153.697 90.5988 153.363 91.3619 153.165C92.7837 152.799 94.9109 152.669 95.9267 153.977Z" fill="#46455B"/>
<path opacity="0.1" d="M95.9267 153.977C96.06 154.183 96.2084 154.379 96.3704 154.562C96.6201 154.765 96.9082 154.91 97.2155 154.988L99.5401 155.764C100.403 156.053 101.361 156.426 101.727 157.294C102.14 158.273 101.552 159.464 100.682 160.021C99.8129 160.578 98.7482 160.66 97.7301 160.702C92.0296 160.932 86.3238 160.424 80.7415 159.189C80.6263 159.171 80.5155 159.13 80.4155 159.067C79.9719 158.753 80.3511 158.049 80.7349 157.669C82.2321 156.177 83.8602 154.613 85.8987 154.268C86.97 154.084 88.0458 154.158 89.1105 153.89C89.8757 153.697 90.5988 153.363 91.3619 153.165C92.7837 152.799 94.9109 152.669 95.9267 153.977Z" fill="black"/>
<path d="M84.255 101.253C83.108 104.434 83.0375 107.933 84.0554 111.162C83.2813 111.074 82.9463 112.174 82.9663 112.995C82.9939 114.137 83.1586 115.271 83.4565 116.37C83.5985 116.892 83.7715 117.424 83.716 117.96C83.6362 118.71 83.1304 119.326 82.8665 120.027C82.312 121.512 82.882 123.167 82.9774 124.759C83.0661 126.254 82.7268 127.734 82.4539 129.202C82.002 131.653 81.735 134.137 81.6554 136.631C81.6538 137.577 81.5953 138.521 81.4802 139.459C81.2805 140.783 80.8147 142.058 80.726 143.394C80.5996 145.473 81.4358 147.513 81.3604 149.597C81.2717 152.042 79.9319 154.419 80.4 156.823C80.4665 157.161 80.6462 157.559 80.9767 157.564C84.3216 157.608 87.4469 156.632 90.7563 157.142C91.0935 149.095 91.4218 141.011 92.9301 133.111C94.2609 126.079 96.5168 119.125 96.306 111.955C96.184 107.855 95.2569 103.834 94.6935 99.773C91.1571 98.9478 87.4568 99.4726 84.255 101.253Z" fill="#BBBDC8"/>
<path opacity="0.1" d="M84.255 101.253C83.108 104.434 83.0375 107.933 84.0554 111.162C83.2813 111.074 82.9463 112.174 82.9663 112.995C82.9939 114.137 83.1586 115.271 83.4565 116.37C83.5985 116.892 83.7715 117.424 83.716 117.96C83.6362 118.71 83.1304 119.326 82.8665 120.027C82.312 121.512 82.882 123.167 82.9774 124.759C83.0661 126.254 82.7268 127.734 82.4539 129.202C82.002 131.653 81.735 134.137 81.6554 136.631C81.6538 137.577 81.5953 138.521 81.4802 139.459C81.2805 140.783 80.8147 142.058 80.726 143.394C80.5996 145.473 81.4358 147.513 81.3604 149.597C81.2717 152.042 79.9319 154.419 80.4 156.823C80.4665 157.161 80.6462 157.559 80.9767 157.564C84.3216 157.608 87.4469 156.632 90.7563 157.142C91.0935 149.095 91.4218 141.011 92.9301 133.111C94.2609 126.079 96.5168 119.125 96.306 111.955C96.184 107.855 95.2569 103.834 94.6935 99.773C91.1571 98.9478 87.4568 99.4726 84.255 101.253Z" fill="black"/>
<path d="M99.0322 157.473C99.1655 157.68 99.3138 157.875 99.4758 158.058C99.7256 158.262 100.014 158.407 100.321 158.485L102.646 159.261C103.508 159.55 104.467 159.923 104.833 160.79C105.245 161.769 104.657 162.96 103.788 163.517C102.918 164.075 101.854 164.156 100.836 164.198C95.1351 164.429 89.4292 163.921 83.847 162.685C83.7318 162.668 83.621 162.627 83.5209 162.564C83.0773 162.249 83.4566 161.545 83.8404 161.165C85.3376 159.674 86.9657 158.109 89.0041 157.764C90.0755 157.58 91.1512 157.655 92.2159 157.387C92.9812 157.193 93.7043 156.86 94.4673 156.662C95.8891 156.296 98.0163 156.165 99.0322 157.473Z" fill="#46455B"/>
<path d="M85.4085 101.484C84.5523 102.649 84.2994 104.188 84.4148 105.647C84.5301 107.106 84.9981 108.507 85.4573 109.89C84.8473 110.479 84.9737 111.496 85.0536 112.363C85.3441 115.584 84.2794 118.799 84.4347 122.03C84.499 123.389 84.7807 124.729 84.8473 126.088C84.9205 127.573 84.7408 129.058 84.5722 130.533C83.4954 139.979 82.9031 149.48 82.7977 158.993C82.7977 159.869 82.7844 160.76 83.0196 161.599C84.6321 162.846 86.6573 163.014 88.6092 162.548C90.5611 162.081 92.3423 161.042 94.0924 160.016C95.0512 159.495 95.9603 158.878 96.8073 158.175C97.0665 157.982 97.2582 157.705 97.353 157.387C97.5393 156.454 96.3061 156.032 95.5985 155.429C94.5693 154.55 94.5848 152.923 94.6913 151.533L95.3345 143.104C95.4809 141.195 95.6229 139.249 95.2103 137.384C95.0417 136.629 94.7822 135.853 94.9375 135.093C95.1903 133.857 96.4059 133.167 97.2332 132.247C98.4842 130.848 98.8702 128.864 99.1585 126.976C100.518 118.018 100.807 108.918 100.019 99.8848C98.3889 100.479 96.4569 100.155 94.7378 100.295C93.0188 100.435 91.3109 101.039 89.5696 101.088C88.119 101.123 86.3001 100.281 85.4085 101.484Z" fill="#BBBDC8"/>
<path d="M97.1533 59.9076C101.686 59.9076 105.36 56.0461 105.36 51.2828C105.36 46.5194 101.686 42.658 97.1533 42.658C92.6207 42.658 88.9463 46.5194 88.9463 51.2828C88.9463 56.0461 92.6207 59.9076 97.1533 59.9076Z" fill="#A1616A"/>
<path d="M101.791 65.4693C99.1616 64.1999 96.4194 63.2052 93.6044 62.4996C91.6214 62.0031 89.3567 61.7047 87.6998 62.9518C87.2561 63.2851 86.8547 63.8096 86.95 64.3737C87.2424 64.3839 87.5218 64.5029 87.7384 64.7096C87.955 64.9163 88.0946 65.1971 88.1323 65.502C88.1811 65.9961 87.9504 66.4693 87.7242 66.9006L85.8099 70.6302C85.4432 71.3021 85.1279 72.0036 84.8672 72.7282C84.4813 73.9123 84.397 75.1804 84.3149 76.4299L84.0931 79.8145C83.9556 81.9474 83.8159 84.0896 84 86.2179C84.1375 87.8239 84.4569 89.437 84.2395 91.0338C84.0643 92.3182 83.5475 93.5233 83.2569 94.7867C82.7112 97.1644 82.9597 99.7705 81.9016 101.952C82.3313 101.744 82.8163 101.698 83.2746 101.822C86.4865 102.444 89.0129 105.109 92.1316 106.127C92.919 104.92 93.9859 104.029 94.8665 102.906C95.5214 102.063 95.955 101.056 96.1242 99.9826C96.7896 100.915 97.3552 101.642 97.7523 102.724C97.8229 102.976 97.9439 103.208 98.1072 103.407C98.5264 103.836 99.2162 103.67 99.7774 103.491C102.529 102.619 105.373 102.112 108.244 101.983C108.705 101.962 108.929 101.729 109.074 101.267C109.218 100.805 109.138 100.307 109.051 99.8311C108.499 96.7238 107.882 93.6119 107.78 90.4534C107.718 88.5885 107.84 86.6981 107.616 84.8379C107.505 83.9265 107.312 83.029 107.122 82.1339L105.538 74.7375C105.449 74.3249 105.028 74.0545 104.848 73.6746C104.12 72.1268 102.73 71.0079 102.011 69.4554C101.468 68.2018 101.39 66.7804 101.791 65.4693Z" fill="#46455B"/>
<path d="M90.2772 54.735C90.2676 54.6143 90.2948 54.4934 90.3548 54.39C90.4426 54.2932 90.5526 54.2217 90.6742 54.1826C91.005 54.0175 91.2755 53.7437 91.4448 53.4025C91.6141 53.0614 91.673 52.6715 91.6125 52.2921L92.3888 52.1219L92.4132 49.2804C93.5667 48.6091 95.1393 49.1172 96.224 48.327C96.834 47.8794 97.1467 47.1195 97.5193 46.4435C97.892 45.7675 98.4465 45.0869 99.1874 45.0309C98.9326 45.7119 98.8234 46.4435 98.8675 47.1738C98.9116 47.9041 99.1078 48.6153 99.4425 49.2571C100.219 48.844 100.868 48.2068 101.312 47.4202L101.698 49.7513C101.706 49.895 101.765 50.0305 101.862 50.1312C102.064 50.2874 102.337 50.0916 102.515 49.8981L103.519 48.8608C103.942 49.9759 104.232 51.1417 104.382 52.3317C106.032 50.6487 106.545 47.9447 105.91 45.623C105.276 43.3013 103.615 41.3782 101.614 40.1917C99.6132 39.0052 97.2931 38.5063 94.9974 38.4178C94.2267 38.3704 93.4534 38.4228 92.6949 38.5739C91.8812 38.7891 91.0938 39.1019 90.3482 39.5064C89.2014 40.0728 88.0436 40.6952 87.1874 41.6742C85.6968 43.3805 85.3619 45.8887 85.526 48.2011C85.7478 51.2315 86.6839 54.1569 87.7729 56.9728C88.1345 57.9052 88.5205 58.8493 89.1171 59.6442C90.0155 60.84 92.2225 59.847 91.9408 57.4833C91.7456 55.7956 90.2772 56.446 90.2772 54.735Z" fill="#3F3D56"/>
<path d="M93.3826 100.911C90.6145 106.854 86.3636 111.898 81.0831 115.503C79.4883 116.587 77.756 117.552 75.8905 117.869C75.6355 117.913 75.3804 117.943 75.1209 117.962C74.1589 118.046 73.1923 117.873 72.3105 117.461C71.7267 117.152 71.1863 116.76 70.7046 116.295C68.9785 114.708 67.6069 112.739 66.6876 110.531C66.1472 109.145 65.6988 107.721 65.3456 106.27C64.8014 104.24 64.2587 102.21 63.7175 100.179C63.1874 98.1925 62.6528 96.1832 62.5419 94.1179C62.3623 90.7635 63.3205 87.4418 64.6669 84.3951C64.8965 83.9259 65.0815 83.434 65.2192 82.9266C65.2192 82.8916 65.2347 82.8567 65.2414 82.8194C65.4011 82.0152 65.319 81.1736 65.4632 80.3624C65.7338 78.7307 66.8783 77.3787 68.2225 76.5186C69.5667 75.6584 71.1061 75.2179 72.6343 74.7889L75.0144 74.1153L76.4916 73.698L82.5005 71.9987C83.3323 71.7656 84.173 71.4556 85.0181 71.2994C85.9608 71.1129 85.9541 71.2108 86.0273 72.1805C86.1626 73.9381 86.1183 75.6654 86.4709 77.4067C86.8059 79.0687 87.3959 80.6701 87.8395 82.3019C88.9597 86.4208 89.146 90.7565 90.0288 94.9407C90.2306 95.8941 90.5101 96.9105 91.2399 97.5049C92.0761 98.2042 93.4846 98.3767 93.7064 99.4723C93.7885 99.9595 93.5822 100.458 93.3826 100.911Z" fill="#185296"/>
<path opacity="0.1" d="M75.8906 117.859C75.6355 117.904 75.3804 117.934 75.1209 117.953C74.1596 118.039 73.1931 117.87 72.3105 117.461C71.7267 117.152 71.1863 116.76 70.7046 116.295C68.9785 114.708 67.6069 112.739 66.6876 110.531C66.1472 109.145 65.6989 107.721 65.3456 106.27C64.8014 104.24 64.2588 102.21 63.7175 100.179C63.1874 98.1925 62.6528 96.1832 62.5419 94.1179C62.3623 90.7635 63.3205 87.4418 64.6669 84.3951C64.8965 83.9259 65.0815 83.434 65.2192 82.9266C65.2192 82.8916 65.2347 82.8566 65.2414 82.8193C68.8613 83.4883 73.2044 90.7658 75.4447 100.302C77.095 107.433 77.166 113.999 75.8906 117.859Z" fill="black"/>
<path opacity="0.1" d="M82.434 92.7682L81.8284 92.8777C81.2051 91.1574 80.5841 89.4348 79.8543 87.7611C79.475 86.887 79.0646 86.0245 78.7452 85.1224C77.5475 81.6584 77.7515 77.5488 75.5312 74.6956C75.3727 74.4837 75.1919 74.2914 74.9922 74.1222L76.4695 73.705C77.7631 75.8544 78.6754 78.2324 79.1622 80.7237C79.4018 81.9405 79.5371 83.1853 79.9275 84.3555C80.2595 85.2431 80.6395 86.11 81.0654 86.9522C81.9083 88.7681 82.5426 90.7518 82.434 92.7682Z" fill="black"/>
<path d="M88.3297 66.5045C89.9246 65.0685 92.1005 64.2807 94.1656 64.6396C95.3811 64.8471 96.5101 65.4229 97.5992 66.0383C99.722 67.2224 101.814 68.5861 103.344 70.5325C104.262 71.7601 105.024 73.1078 105.611 74.5419C105.899 75.1684 106.122 75.8257 106.277 76.5023C106.818 79.1363 105.489 81.7541 104.209 84.0898L101.747 88.5794C100.616 90.6423 99.4758 92.7193 98.0029 94.5305C97.3242 95.365 96.5789 96.1366 95.8358 96.9082L92.573 100.293C92.5143 100.366 92.4375 100.42 92.3512 100.449C92.2799 100.453 92.2087 100.441 92.1425 100.413C92.0762 100.385 92.0165 100.343 91.9674 100.288L90.8894 99.3861C91.8824 98.6651 92.8051 97.8429 93.6443 96.9315C95.0551 95.3976 96.2151 93.6331 97.3686 91.8755L100.957 86.4068C102.007 84.8054 103.102 83.0432 102.985 81.1037C102.929 80.1713 102.597 79.2949 102.248 78.4394C101.632 76.918 100.962 75.4207 100.239 73.9475C99.427 72.2948 98.5397 70.663 97.3708 69.2667C96.2018 67.8705 94.7246 66.7026 93.0233 66.1968C92.5159 66.0226 91.9781 65.9684 91.4484 66.0383C90.2817 66.2411 89.4521 67.2947 88.7135 68.2737L86.4643 71.3041C85.9519 71.9917 85.4817 72.7889 85.4506 71.4836C85.3974 69.6211 87.1896 67.7026 88.3297 66.5045Z" fill="#185296"/>
<path d="M89.0263 86.9477C89.4699 88.7426 90.1242 90.7799 91.7679 91.4605C92.9324 91.9431 94.2965 91.5514 95.3035 90.7612C96.3106 89.971 97.0248 88.8568 97.6814 87.7309C98.2371 86.7191 98.8496 85.743 99.5157 84.8078C100.831 83.0735 102.621 81.6982 103.508 79.6795C103.77 79.0781 103.952 78.4347 104.249 77.8566C104.567 77.3236 104.926 76.8192 105.323 76.3484C106.344 75.0187 107.161 73.529 107.743 71.9335C107.947 71.3764 108.122 70.7796 108.042 70.1899C107.885 69.0546 106.862 68.3087 105.911 67.7516C105.332 67.4136 104.726 67.0849 104.067 67.0336C103.105 66.9544 102.158 67.4998 101.565 68.2994C100.995 69.1264 100.677 70.1154 100.651 71.1363C100.585 72.3787 100.816 73.6701 100.43 74.8449C100.225 75.393 99.9435 75.9054 99.5934 76.3648C98.3474 78.1166 96.8053 79.6124 95.044 80.7774C94.9957 79.8957 94.8138 79.0277 94.505 78.2063C94.3364 77.7541 91.0315 78.2063 90.6011 78.2809C89.7494 78.4114 88.0991 78.514 87.5623 79.3671C87.0255 80.2203 87.691 81.6539 87.9083 82.514L89.0263 86.9477Z" fill="#A1616A"/>
<path d="M88.9465 67.3599C88.4555 67.7861 87.9985 68.2539 87.5801 68.7585C86.5953 70.0056 86.1139 71.628 85.9897 73.2434C85.8655 74.8588 86.0762 76.4812 86.3402 78.078C86.5797 79.5108 86.8629 80.9335 87.1897 82.3461C87.2807 81.2808 88.1014 80.3997 89.0529 80.0151C90.0045 79.6305 91.0492 79.6724 92.0629 79.8286C93.3676 80.0317 94.6404 80.4182 95.847 80.9778L96.3151 74.0849C96.4136 73.1551 96.4084 72.2163 96.2995 71.2877C96.1521 70.426 95.8318 69.6072 95.3598 68.8857C94.8879 68.1643 94.2751 67.5567 93.5624 67.1035C91.7834 65.9659 90.5435 65.8937 88.9465 67.3599Z" fill="#46455B"/>
<path d="M136.68 158.126C137.17 158.592 137.92 158.58 138.585 158.529L141.618 158.296C144.026 158.109 146.517 157.9 148.642 156.694C148.867 156.586 149.067 156.427 149.226 156.228C149.395 155.923 149.483 155.576 149.481 155.224C149.768 151.771 150.421 148.363 151.428 145.063C152.759 140.669 154.755 136.338 154.729 131.738C154.729 131.627 154.729 131.505 154.729 131.405C154.691 129.964 154.449 128.54 154.301 127.107C154.055 124.708 154.079 122.291 154.097 119.88C154.078 118.936 154.14 117.991 154.283 117.058C154.423 116.3 154.948 115.54 154.627 114.873C154.004 113.58 151.743 113.104 150.528 113.058C148.891 112.997 147.28 113.447 145.699 113.894C145.218 114.032 144.714 114.179 144.35 114.535C143.862 115.016 143.723 115.769 143.705 116.47C143.621 119.582 145.326 122.477 145.462 125.584C145.486 126.144 145.462 126.75 145.772 127.216C145.977 127.47 146.199 127.708 146.438 127.927C147.103 128.694 147.123 129.85 147.076 130.89C147.056 131.31 147.034 131.729 147.008 132.149C146.645 137.749 145.569 143.272 143.807 148.571C143.637 149.137 143.414 149.683 143.141 150.203C142.696 150.932 142.14 151.579 141.496 152.119C140.582 152.939 139.603 153.675 138.57 154.319C137.88 154.748 137.144 155.158 136.671 155.839C136.199 156.52 136.095 157.552 136.68 158.126Z" fill="#FDA8A8"/>
<path opacity="0.1" d="M136.68 158.126C137.17 158.592 137.92 158.58 138.585 158.529L141.618 158.296C144.026 158.109 146.517 157.9 148.642 156.694C148.867 156.586 149.067 156.427 149.226 156.228C149.395 155.923 149.483 155.576 149.481 155.224C149.768 151.771 150.421 148.363 151.428 145.063C152.759 140.669 154.755 136.338 154.729 131.738C154.729 131.627 154.729 131.505 154.729 131.405C154.691 129.964 154.449 128.54 154.301 127.107C154.055 124.708 154.079 122.291 154.097 119.88C154.078 118.936 154.14 117.991 154.283 117.058C154.423 116.3 154.948 115.54 154.627 114.873C154.004 113.58 151.743 113.104 150.528 113.058C148.891 112.997 147.28 113.447 145.699 113.894C145.218 114.032 144.714 114.179 144.35 114.535C143.862 115.016 143.723 115.769 143.705 116.47C143.621 119.582 145.326 122.477 145.462 125.584C145.486 126.144 145.462 126.75 145.772 127.216C145.977 127.47 146.199 127.708 146.438 127.927C147.103 128.694 147.123 129.85 147.076 130.89C147.056 131.31 147.034 131.729 147.008 132.149C146.645 137.749 145.569 143.272 143.807 148.571C143.637 149.137 143.414 149.683 143.141 150.203C142.696 150.932 142.14 151.579 141.496 152.119C140.582 152.939 139.603 153.675 138.57 154.319C137.88 154.748 137.144 155.158 136.671 155.839C136.199 156.52 136.095 157.552 136.68 158.126Z" fill="black"/>
<path d="M136.68 158.126C137.17 158.592 137.92 158.58 138.585 158.529L141.618 158.296C144.026 158.11 146.517 157.9 148.642 156.695C148.867 156.586 149.067 156.427 149.226 156.228C149.395 155.923 149.483 155.577 149.481 155.224C149.768 151.771 150.421 148.363 151.428 145.063C152.759 140.669 154.755 136.338 154.729 131.739C152.165 132.036 149.587 132.17 147.008 132.139C146.645 137.739 145.569 143.263 143.807 148.562C143.637 149.127 143.414 149.674 143.141 150.193C142.696 150.922 142.14 151.57 141.496 152.109C140.582 152.929 139.603 153.666 138.57 154.31C137.88 154.739 137.144 155.149 136.671 155.83C136.199 156.51 136.095 157.552 136.68 158.126Z" fill="#EEEFF3"/>
<path opacity="0.1" d="M136.68 158.126C137.17 158.592 137.92 158.58 138.585 158.529L141.618 158.296C144.026 158.11 146.517 157.9 148.642 156.695C148.867 156.586 149.067 156.427 149.226 156.228C149.395 155.923 149.483 155.577 149.481 155.224C149.768 151.771 150.421 148.363 151.428 145.063C152.759 140.669 154.755 136.338 154.729 131.739C152.165 132.036 149.587 132.17 147.008 132.139C146.645 137.739 145.569 143.263 143.807 148.562C143.637 149.127 143.414 149.674 143.141 150.193C142.696 150.922 142.14 151.57 141.496 152.109C140.582 152.929 139.603 153.666 138.57 154.31C137.88 154.739 137.144 155.149 136.671 155.83C136.199 156.51 136.095 157.552 136.68 158.126Z" fill="black"/>
<path d="M143.379 157.142C144.108 156.868 144.808 156.516 145.469 156.093L148.811 154.112C149.113 153.906 149.45 153.763 149.803 153.69L150.202 156.825C150.302 157.594 150.355 158.499 149.803 159.014C149.605 159.179 149.379 159.303 149.137 159.378C147.924 159.818 146.615 159.827 145.331 159.869C141.387 160.002 137.403 160.487 133.517 159.76C133.043 159.671 132.528 159.527 132.242 159.13C131.916 158.664 132.009 157.988 132.324 157.515C132.669 157.065 133.109 156.705 133.608 156.464C134.598 155.904 135.625 155.429 136.651 154.951C136.715 154.911 136.79 154.898 136.862 154.914C136.962 154.949 136.993 155.077 137.02 155.184C137.199 155.949 137.785 156.552 138.453 156.914C138.461 156.914 141.902 157.636 143.379 157.142Z" fill="#BBBDC8"/>
<path opacity="0.1" d="M143.379 157.142C144.108 156.868 144.808 156.516 145.469 156.093L148.811 154.112C149.113 153.906 149.45 153.763 149.803 153.69L150.202 156.825C150.302 157.594 150.355 158.499 149.803 159.014C149.605 159.179 149.379 159.303 149.137 159.378C147.924 159.818 146.615 159.827 145.331 159.869C141.387 160.002 137.403 160.487 133.517 159.76C133.043 159.671 132.528 159.527 132.242 159.13C131.916 158.664 132.009 157.988 132.324 157.515C132.669 157.065 133.109 156.705 133.608 156.464C134.598 155.904 135.625 155.429 136.651 154.951C136.715 154.911 136.79 154.898 136.862 154.914C136.962 154.949 136.993 155.077 137.02 155.184C137.199 155.949 137.785 156.552 138.453 156.914C138.461 156.914 141.902 157.636 143.379 157.142Z" fill="black"/>
<path d="M138.898 161.389C139.389 161.855 140.138 161.844 140.804 161.793L143.836 161.559C146.245 161.373 148.736 161.163 150.861 159.958C151.086 159.85 151.285 159.691 151.444 159.492C151.613 159.187 151.701 158.84 151.699 158.487C151.986 155.034 152.639 151.626 153.647 148.326C154.977 143.932 156.974 139.601 156.947 135.002C156.947 134.89 156.947 134.769 156.947 134.669C156.909 133.228 156.668 131.804 156.519 130.37C156.273 127.972 156.297 125.554 156.315 123.144C156.296 122.199 156.358 121.254 156.501 120.321C156.641 119.564 157.167 118.804 156.845 118.137C156.222 116.843 153.962 116.368 152.746 116.321C151.109 116.26 149.499 116.71 147.917 117.158C147.436 117.295 146.932 117.442 146.569 117.799C146.081 118.279 145.941 119.032 145.923 119.734C145.839 122.846 147.545 125.741 147.68 128.848C147.704 129.407 147.68 130.014 147.99 130.48C148.195 130.734 148.418 130.971 148.656 131.191C149.321 131.958 149.341 133.114 149.295 134.153C149.275 134.573 149.253 134.993 149.226 135.412C148.864 141.012 147.787 146.536 146.025 151.834C145.855 152.4 145.632 152.947 145.36 153.466C144.915 154.195 144.359 154.843 143.714 155.382C142.8 156.202 141.821 156.938 140.788 157.583C140.098 158.012 139.362 158.422 138.889 159.103C138.417 159.783 138.313 160.816 138.898 161.389Z" fill="#FDA8A8"/>
<path d="M138.898 161.389C139.389 161.855 140.138 161.844 140.804 161.793L143.836 161.559C146.245 161.373 148.736 161.163 150.861 159.958C151.086 159.85 151.285 159.691 151.444 159.492C151.613 159.187 151.701 158.84 151.699 158.487C151.986 155.034 152.639 151.626 153.647 148.326C154.977 143.932 156.974 139.601 156.947 135.002C154.383 135.3 151.805 135.434 149.226 135.403C148.864 141.003 147.787 146.526 146.025 151.825C145.855 152.391 145.632 152.937 145.36 153.457C144.915 154.186 144.359 154.833 143.714 155.373C142.8 156.193 141.821 156.929 140.788 157.573C140.098 158.002 139.362 158.413 138.889 159.093C138.417 159.774 138.313 160.816 138.898 161.389Z" fill="#EEEFF3"/>
<path d="M145.597 160.405C146.326 160.131 147.026 159.78 147.687 159.356L151.029 157.375C151.331 157.169 151.668 157.026 152.021 156.953L152.42 160.088C152.52 160.858 152.573 161.762 152.021 162.277C151.823 162.443 151.597 162.566 151.355 162.641C150.142 163.081 148.833 163.091 147.549 163.133C143.605 163.266 139.621 163.75 135.735 163.023C135.261 162.935 134.746 162.79 134.46 162.394C134.134 161.928 134.227 161.252 134.542 160.778C134.887 160.329 135.327 159.969 135.826 159.727C136.816 159.168 137.843 158.692 138.87 158.214C138.933 158.175 139.008 158.161 139.08 158.177C139.18 158.212 139.211 158.34 139.238 158.447C139.417 159.212 140.003 159.816 140.671 160.177C140.679 160.177 144.12 160.9 145.597 160.405Z" fill="#BBBDC8"/>
<path d="M134.597 66.833C135.678 65.4344 135.706 63.481 135.68 61.6861C135.68 60.9868 135.66 60.2642 135.635 59.5532V59.5369C135.606 58.2302 135.474 56.9283 135.243 55.6441C135.126 55.0278 134.971 54.4204 134.777 53.8259C134.923 53.7909 135.07 53.7583 135.221 53.7303C137.546 53.2478 139.938 53.2478 142.263 53.7303C142.665 53.8142 143.681 53.7956 144.26 54.003C144.424 54.0444 144.568 54.1503 144.661 54.2991C144.774 54.5485 144.541 55.2711 144.373 55.9121C144.28 56.2011 144.228 56.5026 144.217 56.8073C144.24 57.0936 144.281 57.3779 144.342 57.6581C144.446 58.1733 144.583 58.6837 144.648 59.2059C144.761 60.0964 144.661 61.0031 144.716 61.9006C144.772 62.798 145.018 63.7421 145.668 64.3272C141.892 64.6674 138.172 65.5094 134.597 66.833Z" fill="#FDA8A8"/>
<path opacity="0.1" d="M145.227 57.5556C144.932 57.5813 144.639 57.6116 144.339 57.6466C141.385 57.978 138.469 58.6184 135.635 59.558V59.5417L135.243 55.6489C135.243 55.4158 135.243 55.1826 135.243 54.9379C135.243 54.5393 135.232 54.136 135.223 53.7351C137.548 53.2525 139.94 53.2525 142.265 53.7351C142.667 53.819 143.683 53.8003 144.262 54.0078C144.262 54.3878 144.262 54.7677 144.275 55.1477C144.29 55.4064 144.323 55.6636 144.375 55.9169C144.481 56.5462 144.78 57.1217 145.227 57.5556Z" fill="black"/>
<path d="M139.63 58.6255C144.163 58.6255 147.837 54.7641 147.837 50.0007C147.837 45.2373 144.163 41.3759 139.63 41.3759C135.098 41.3759 131.423 45.2373 131.423 50.0007C131.423 54.7641 135.098 58.6255 139.63 58.6255Z" fill="#FDA8A8"/>
<path d="M132.421 82.521C130.964 77.1014 132.295 71.2808 135.775 67.001C136.549 66.0476 137.328 65.0686 138.344 64.4975C139.553 63.8215 140.983 63.7982 142.352 63.7842C143.561 63.7842 144.807 63.7842 145.919 64.29C147.42 64.9637 148.456 66.4276 149.33 67.8798C150.262 69.4276 151.105 71.1036 151.247 72.9312C151.322 74.0151 151.14 75.1153 151.293 76.1946C151.488 77.5629 152.214 78.789 152.511 80.1364C152.673 80.8637 152.706 81.6166 152.81 82.3579C152.967 83.3719 153.196 84.3723 153.494 85.3509C155.697 93.0411 158.715 100.447 162.49 107.43C163.599 109.489 164.786 111.524 165.531 113.755C165.868 114.764 166.112 115.853 165.837 116.892C165.378 118.617 163.304 119.631 161.754 118.888C161.811 119.079 161.799 119.286 161.721 119.469C161.642 119.652 161.502 119.799 161.328 119.881C160.959 120.055 160.556 120.135 160.152 120.114L146.453 120.496C146.093 120.505 145.736 120.556 145.386 120.647C143.776 121.081 144.382 121.813 144.209 122.424C143.998 123.17 142.98 123.109 142.27 122.89C142.379 123.978 142.403 125.31 141.065 125.627C140.718 125.7 140.36 125.688 140.018 125.589C137.591 124.932 135.075 124.719 132.579 124.96C131.665 125.048 130.62 125.156 129.944 124.494C129.434 124.002 129.301 123.219 129.214 122.496C127.85 111.074 130.656 99.6355 132.763 88.3509C133.047 86.8288 132.945 84.3626 132.519 82.8754L132.421 82.521Z" fill="#F3D5B1"/>
<path d="M150.61 74.6491C150.932 75.6234 151.333 76.5815 151.442 77.6072C151.528 78.4277 151.424 79.2575 151.471 80.0804C151.556 80.994 151.735 81.8952 152.005 82.7681C152.432 84.4658 152.959 86.1342 153.582 87.7635C153.88 88.4978 154.223 89.3066 153.984 90.0642C153.744 90.8218 153.001 91.2903 152.788 92.0433C152.566 92.8381 153.01 93.675 153.576 94.2554C154.141 94.8358 154.849 95.2484 155.372 95.8662C155.942 96.5398 156.26 97.4 156.661 98.1972C157.231 99.2516 157.885 100.254 158.615 101.193L161.297 104.85C161.464 105.114 161.684 105.336 161.94 105.503C162.827 105.987 163.757 105.011 164.66 104.57C165.857 103.971 167.259 104.323 168.583 104.423C169.908 104.524 171.502 104.162 171.975 102.862C172.131 102.334 172.164 101.774 172.07 101.23C171.863 99.3699 171.351 97.5616 170.558 95.8848C170.074 94.8638 169.484 93.8871 169.18 92.7938C168.932 91.9057 168.883 90.971 168.685 90.0689C168.488 89.1668 168.14 88.3043 167.86 87.4231C165.877 81.162 167.368 74.3111 166.727 67.7469C166.49 65.3249 165.786 62.6699 163.803 61.4088C162.626 60.6605 161.21 60.544 159.811 60.4764L159.179 60.4461L158.161 60.3925C156.688 60.3155 155.21 60.2573 153.775 60.5859C151.757 61.0522 149.328 62.7002 149.248 65.0685C149.161 68.3214 149.622 71.5649 150.61 74.6491Z" fill="#185296"/>
<path opacity="0.1" d="M158.171 60.3832C158.444 61.9693 158.579 63.578 158.577 65.1898C158.617 69.7912 159.09 74.374 159.564 78.9429L159.877 81.9732C159.935 82.5326 160.004 83.1201 160.321 83.57C160.638 84.0198 161.303 84.2553 161.723 83.908C161.98 82.838 161.929 81.7145 161.878 80.6119C161.767 78.2669 161.657 75.9211 161.547 73.5745C161.441 71.2901 161.326 69.0033 161.062 66.7329C160.855 64.9743 160.549 63.23 160.148 61.5091C160.072 61.1525 159.965 60.8039 159.831 60.4671L159.198 60.4368L158.171 60.3832Z" fill="black"/>
<path d="M143.678 62.3552C142.319 62.1501 140.895 62.0452 139.604 62.5417C138.37 63.0196 137.386 64.0009 136.498 65.0336C135.893 65.699 135.393 66.4615 135.017 67.2924C134.26 69.1199 134.555 71.2271 135.017 73.1619C136.274 78.4906 138.772 83.6306 142.78 87.1481C144 88.1899 145.299 89.1254 146.664 89.9453C148.438 91.0386 150.271 92.0433 152.234 92.675C152.782 92.8521 153.365 93.0013 153.926 92.8754C154.487 92.7496 155.017 92.2717 155.035 91.668C151.819 89.7682 148.935 87.3136 146.072 84.8707C145.287 84.2343 144.552 83.5327 143.874 82.7727C142.858 81.5723 142.141 80.1224 141.156 78.8939C140.269 77.7913 139.16 76.8612 138.495 75.6002C138.077 74.7389 137.797 73.8111 137.667 72.8542C137.339 70.9031 137.277 68.8308 138.013 67.0056C138.75 65.1804 140.438 63.6816 142.323 63.7142C143.29 63.7305 144.211 64.1338 145.102 64.5277L150.714 67.0173C150.645 66.9847 151.036 65.9613 151.018 65.8191C150.965 65.3739 150.889 65.3669 150.574 65.0289C150.038 64.4648 149.204 64.0685 148.523 63.7399C146.979 63.0368 145.348 62.5705 143.678 62.3552Z" fill="#185296"/>
<path d="M132.508 48.3691C134.109 47.9953 135.591 47.1922 136.809 46.0381L135.636 52.509C136.804 51.9452 137.938 51.3036 139.029 50.5882C139.187 53.5486 138.958 56.5767 137.92 59.3319C136.882 62.0872 134.968 64.5535 132.399 65.7772C134.68 66.1782 136.727 64.4579 138.756 63.2947C140.172 62.4858 142.589 63.318 144.138 62.8285C145.451 62.4229 146.799 62.0686 147.984 61.3436C150.184 59.994 150.683 56.0522 151.129 53.4181C151.575 50.784 151.169 48.0567 150.428 45.4926C150.182 44.5845 149.848 43.7051 149.432 42.8678C148.861 41.7684 148.079 40.8054 147.135 40.0398C146.192 39.2742 145.107 38.7226 143.95 38.4199C142.794 38.1171 141.59 38.0698 140.415 38.2809C139.24 38.492 138.119 38.957 137.124 39.6464C135.079 41.0613 133.182 43.1429 131.621 45.1173C131.399 45.39 130.483 46.3597 130.787 46.7677C131.157 47.2618 133.331 45.8539 133.699 45.6628C133.593 46.0847 132.932 48.2595 132.508 48.3691Z" fill="#FFD566"/>
<g opacity="0.1">
<path opacity="0.1" d="M141.738 123.762C141.391 123.836 141.032 123.823 140.691 123.724C138.264 123.067 135.747 122.854 133.251 123.095C132.337 123.184 131.293 123.291 130.616 122.629C130.106 122.137 129.973 121.354 129.886 120.631C128.522 109.209 131.328 97.7706 133.435 86.486C133.719 84.9639 133.617 82.4976 133.191 81.0104L133.091 80.6491C132.27 77.5674 132.319 74.3013 133.231 71.248C131.718 74.7913 131.431 78.7791 132.422 82.5209L132.521 82.8822C132.947 84.3694 133.049 86.845 132.765 88.3578C130.665 99.6424 127.859 111.088 129.216 122.503C129.303 123.225 129.438 124.009 129.946 124.501C130.612 125.156 131.667 125.048 132.581 124.967C135.077 124.726 137.594 124.939 140.021 125.596C140.362 125.695 140.721 125.707 141.068 125.633C142.159 125.375 142.343 124.44 142.317 123.515C142.139 123.633 141.943 123.717 141.738 123.762Z" fill="black"/>
<path opacity="0.1" d="M162.424 117.023C162.481 117.214 162.47 117.421 162.391 117.604C162.313 117.788 162.173 117.934 161.998 118.016C161.629 118.191 161.226 118.27 160.822 118.249L147.123 118.631C146.764 118.641 146.406 118.691 146.056 118.783C144.446 119.216 145.052 119.948 144.879 120.559C144.668 121.305 143.65 121.244 142.94 121.025C143.007 121.689 143.04 122.442 142.754 123.002C143.377 123.1 144.047 123.013 144.213 122.424C144.38 121.834 143.781 121.081 145.391 120.647C145.74 120.556 146.098 120.505 146.458 120.496L160.148 120.114C160.552 120.135 160.955 120.055 161.324 119.88C161.498 119.799 161.638 119.652 161.717 119.469C161.795 119.286 161.807 119.079 161.75 118.887C163.302 119.631 165.374 118.617 165.833 116.892C165.902 116.631 165.941 116.361 165.949 116.09C165.119 117.135 163.617 117.601 162.424 117.023Z" fill="black"/>
</g>
<path d="M144.047 68.3134C145.225 70.9461 146.267 73.644 147.167 76.395C147.895 78.6119 148.536 80.9406 148.294 83.2716C148.052 85.6026 146.742 87.957 144.612 88.6912C143.707 89.0036 142.738 89.0059 141.786 89.0292C139.507 89.0855 137.233 89.2785 134.974 89.6073C133.923 89.79 132.864 89.9137 131.8 89.978C130.296 90.0293 128.793 89.7822 127.293 89.9104C124.866 90.1178 122.562 91.309 120.126 91.309C119.829 91.3283 119.532 91.2706 119.261 91.1412C118.818 90.8894 118.62 90.3439 118.469 89.8404C118.13 88.7029 117.864 87.3975 118.438 86.3695C119.146 85.1038 120.754 84.8497 122.149 84.7378C125.29 84.5047 128.435 84.3415 131.583 84.2483C134.269 84.169 137.179 84.0618 139.262 82.2762C139.403 82.1707 139.517 82.0317 139.597 81.8706C139.676 81.5977 139.666 81.3052 139.57 81.0385C138.745 77.6483 138.391 74.1505 138.519 70.6537C138.505 70.3401 138.582 70.0293 138.741 69.7633C138.929 69.5499 139.174 69.4005 139.444 69.3343C141.304 68.7073 143.295 68.6491 145.184 69.1665" fill="#FDA8A8"/>
<path d="M138.464 70.6513C138.142 70.7677 137.861 70.9849 137.661 71.2737C137.749 70.3016 137.63 69.3203 137.647 68.3412C137.665 67.3622 137.838 66.3412 138.426 65.5813C139.173 64.6116 140.444 64.2643 141.633 64.2316C143.359 64.1827 145.145 64.7095 146.409 65.9449C147.223 66.7457 147.751 67.8151 147.906 68.9753C147.946 69.2946 148.079 70.4928 147.762 70.6979C147.485 70.8797 146.431 70.2527 146.092 70.1524C143.572 69.3742 140.872 69.5507 138.464 70.6513Z" fill="#F3D5B1"/>
<path opacity="0.1" d="M104.917 15.6179C105.774 15.6179 106.469 14.8874 106.469 13.9862C106.469 13.085 105.774 12.3545 104.917 12.3545C104.059 12.3545 103.364 13.085 103.364 13.9862C103.364 14.8874 104.059 15.6179 104.917 15.6179Z" fill="#185296"/>
<path opacity="0.1" d="M115.342 47.0869C116.2 47.0869 116.895 46.3564 116.895 45.4552C116.895 44.554 116.2 43.8235 115.342 43.8235C114.484 43.8235 113.789 44.554 113.789 45.4552C113.789 46.3564 114.484 47.0869 115.342 47.0869Z" fill="#185296"/>
<path opacity="0.1" d="M85.841 17.2497C86.6985 17.2497 87.3937 16.5191 87.3937 15.6179C87.3937 14.7168 86.6985 13.9862 85.841 13.9862C84.9835 13.9862 84.2883 14.7168 84.2883 15.6179C84.2883 16.5191 84.9835 17.2497 85.841 17.2497Z" fill="#185296"/>
<path opacity="0.1" d="M38.1515 94.1738C40.3566 94.1738 42.1441 92.2953 42.1441 89.978C42.1441 87.6607 40.3566 85.7821 38.1515 85.7821C35.9465 85.7821 34.1589 87.6607 34.1589 89.978C34.1589 92.2953 35.9465 94.1738 38.1515 94.1738Z" fill="#185296"/>
<path opacity="0.1" d="M198.965 24.9421C199.822 24.9421 200.517 24.2116 200.517 23.3104C200.517 22.4093 199.822 21.6787 198.965 21.6787C198.107 21.6787 197.412 22.4093 197.412 23.3104C197.412 24.2116 198.107 24.9421 198.965 24.9421Z" fill="#185296"/>
<path opacity="0.1" d="M200.739 50.8165C203.557 50.8165 205.841 48.4161 205.841 45.4551C205.841 42.4941 203.557 40.0938 200.739 40.0938C197.922 40.0938 195.638 42.4941 195.638 45.4551C195.638 48.4161 197.922 50.8165 200.739 50.8165Z" fill="#185296"/>
<path opacity="0.1" d="M208.946 31.9352C209.804 31.9352 210.499 31.2047 210.499 30.3035C210.499 29.4023 209.804 28.6718 208.946 28.6718C208.089 28.6718 207.394 29.4023 207.394 30.3035C207.394 31.2047 208.089 31.9352 208.946 31.9352Z" fill="#185296"/>
<path opacity="0.1" d="M195.194 61.7724C196.052 61.7724 196.747 61.0418 196.747 60.1406C196.747 59.2395 196.052 58.5089 195.194 58.5089C194.337 58.5089 193.641 59.2395 193.641 60.1406C193.641 61.0418 194.337 61.7724 195.194 61.7724Z" fill="#185296"/>
<path opacity="0.1" d="M101.811 28.6717C102.669 28.6717 103.364 27.9411 103.364 27.0399C103.364 26.1388 102.669 25.4082 101.811 25.4082C100.954 25.4082 100.259 26.1388 100.259 27.0399C100.259 27.9411 100.954 28.6717 101.811 28.6717Z" fill="#185296"/>
<path opacity="0.1" d="M43.697 111.19C44.5545 111.19 45.2496 110.46 45.2496 109.559C45.2496 108.658 44.5545 107.927 43.697 107.927C42.8394 107.927 42.1443 108.658 42.1443 109.559C42.1443 110.46 42.8394 111.19 43.697 111.19Z" fill="#185296"/>
<path opacity="0.1" d="M41.257 73.8938C42.1145 73.8938 42.8097 73.1633 42.8097 72.2621C42.8097 71.3609 42.1145 70.6304 41.257 70.6304C40.3995 70.6304 39.7043 71.3609 39.7043 72.2621C39.7043 73.1633 40.3995 73.8938 41.257 73.8938Z" fill="#185296"/>
<path opacity="0.1" d="M126.433 13.9861C127.29 13.9861 127.985 13.2556 127.985 12.3544C127.985 11.4532 127.29 10.7227 126.433 10.7227C125.575 10.7227 124.88 11.4532 124.88 12.3544C124.88 13.2556 125.575 13.9861 126.433 13.9861Z" fill="#185296"/>
<path opacity="0.1" d="M131.534 31.8604C132.392 31.8604 133.087 31.1298 133.087 30.2287C133.087 29.3275 132.392 28.5969 131.534 28.5969C130.677 28.5969 129.981 29.3275 129.981 30.2287C129.981 31.1298 130.677 31.8604 131.534 31.8604Z" fill="#185296"/>
</g>
<defs>
<linearGradient id="paint0_linear" x1="85.2998" y1="164.252" x2="85.2998" y2="38.2289" gradientUnits="userSpaceOnUse">
<stop stop-color="#808080" stop-opacity="0.25"/>
<stop offset="0.54" stop-color="#808080" stop-opacity="0.12"/>
<stop offset="1" stop-color="#808080" stop-opacity="0.1"/>
</linearGradient>
<clipPath id="clip0">
<rect width="240" height="169" fill="white"/>
</clipPath>
</defs>
</svg>
