{
  "files": {
    "main.css": "/static/css/main.574b3329.chunk.css",
    "main.js": "/static/js/main.66f89c1b.chunk.js",
    "main.js.map": "/static/js/main.66f89c1b.chunk.js.map",
    "runtime~main.js": "/static/js/runtime~main.a8a9905a.js",
    "runtime~main.js.map": "/static/js/runtime~main.a8a9905a.js.map",
    "static/js/2.3ce6d061.chunk.js": "/static/js/2.3ce6d061.chunk.js",
    "static/js/2.3ce6d061.chunk.js.map": "/static/js/2.3ce6d061.chunk.js.map",
    "index.html": "/index.html",
    "precache-manifest.32c5b1f38a7b9da6798b9b63c4ae022f.js": "/precache-manifest.32c5b1f38a7b9da6798b9b63c4ae022f.js",
    "service-worker.js": "/service-worker.js",
    "static/css/main.574b3329.chunk.css.map": "/static/css/main.574b3329.chunk.css.map"
  }
}